…
results
```

    ## # A tibble: 72 x 5
    ##    nrounds   eta max_depth rmse.train rmse.test
    ##      <dbl> <dbl>     <dbl>      <dbl>     <dbl>
    ##  1      10   0.1         6   2.054802  3.204319
    ##  2      10   0.1         4   2.082638  3.191337
    ##  3      10   0.1         4   2.082638  3.191337
    ##  4      10   0.1         4   2.082638  3.191337
    ##  5      10   0.1         6   2.057249  3.178219
    ##  6      10   0.1         6   2.056468  3.170759
    ##  7      15   0.1         4   1.416361  2.785399
    ##  8      15   0.1         4   1.416361  2.785399
    ##  9      15   0.1         4   1.416407  2.784853
    ## 10      15   0.1         6   1.373803  2.768126
    ## # ... with 62 more rows
…
